{
  "project_info": {
    "project_number": "735372391654",
    "firebase_url": "https://jet-puffed-meme-generator.firebaseio.com",
    "project_id": "jet-puffed-meme-generator",
    "storage_bucket": "jet-puffed-meme-generator.appspot.com"
  },
  "client": [
    {
      "client_info": {
        "mobilesdk_app_id": "1:735372391654:android:e47e40ddf71f6300",
        "android_client_info": {
          "package_name": "cs316.project_1.jet_puffed_dreams"
        }
      },
      "oauth_client": [
        {
          "client_id": "735372391654-qn4qgbmh7i2fs1p6hjhkkcaciefros58.apps.googleusercontent.com",
          "client_type": 1,
          "android_info": {
            "package_name": "cs316.project_1.jet_puffed_dreams",
            "certificate_hash": "cefbc07ed224eaaea20b22adaab5fc04cf305b27"
          }
        },
        {
          "client_id": "735372391654-189u12unctohchthrbb0f219iq3tjflb.apps.googleusercontent.com",
          "client_type": 3
        }
      ],
      "api_key": [
        {
          "current_key": "AIzaSyC7AmsfJHiuf3roxPx4o9n7tZE226p4iIM"
        }
      ],
      "services": {
        "analytics_service": {
          "status": 1
        },
        "appinvite_service": {
          "status": 2,
          "other_platform_oauth_client": [
            {
              "client_id": "735372391654-189u12unctohchthrbb0f219iq3tjflb.apps.googleusercontent.com",
              "client_type": 3
            }
          ]
        },
        "ads_service": {
          "status": 2
        }
      }
    }
  ],
  "configuration_version": "1"
}